{
	"name": "automobile-network",
	"version": "1.0.0",
	"client": {
		"tlsEnable": true,
		"adminCredential": {
			"id": "exploreradmin",
			"password": "exploreradminpw"
		},
		"enableAuthentication": true,
		"organization": "Hospital",
		"connection": {
			"timeout": {
				"peer": {
					"endorser": "300"
				},
				"orderer": "300"
			}
		}
	},
	"channels": {
		"autochannel": {
			"peers": {
				"peer0.hospital.auto.com": {}
			}
		}
	},
	"organizations": {
		"Hospital": {
			"mspid": "HospitalMSP",
			"adminPrivateKey": {
				"path": "/tmp/crypto/peerOrganizations/auto.com/hospital.auto.com/users/User1@hospital.auto.com/msp/keystore/05fd28d18d0bc7f80f4b0314efd20c861a82d871ff95efeeb1f7688afaac7ee2_sk"
			},
			"peers": ["peer0.hospital.auto.com"],
			"signedCert": {
				"path": "/tmp/crypto/peerOrganizations/auto.com/hospital.auto.com/users/User1@hospital.auto.com/msp/signcerts/cert.pem"
			}
		}
	},
	"peers": {
		"peer0.hospital.auto.com": {
			"tlsCACerts": {
				"path": "/tmp/crypto/peerOrganizations/auto.com/hospital.auto.com/peers/peer0.hospital.auto.com/tls/ca.crt"
			},
			"url": "grpcs://peer0.hospital.auto.com:7051"
		}
	}
}