{
    "name": "test-network-dealer",
    "version": "1.0.0",
    "client": {
        "organization": "Dealer",
        "connection": {
            "timeout": {
                "peer": {
                    "endorser": "300"
                }
            }
        }
    },
    "organizations": {
        "dealer": {
            "mspid": "DealerMSP",
            "peers": [
                "peer0.dealer.auto.com"
            ],
            "certificateAuthorities": [
                "ca.dealer.auto.com"
            ]
        }
    },
    "peers": {
        "peer0.dealer.auto.com": {
            "url": "grpcs://localhost:9051",
            "tlsCACerts": {
                "pem": "-----BEGIN CERTIFICATE-----\nMIIB6DCCAY+gAwIBAgIUaYc8VzXDUier4xd62vgds3fIlQ8wCgYIKoZIzj0EAwIw\nUTEOMAwGA1UEBhMFSW5kaWExDzANBgNVBAcTBktlcmFsYTERMA8GA1UEChMIYXV0\nby5jb20xGzAZBgNVBAMTEmNhLmRlYWxlci5hdXRvLmNvbTAeFw0yMTExMTAxMjI2\nMDBaFw0zNjExMDYxMjI2MDBaMFExDjAMBgNVBAYTBUluZGlhMQ8wDQYDVQQHEwZL\nZXJhbGExETAPBgNVBAoTCGF1dG8uY29tMRswGQYDVQQDExJjYS5kZWFsZXIuYXV0\nby5jb20wWTATBgcqhkjOPQIBBggqhkjOPQMBBwNCAARO0MW53pYKZTunwScWeyBc\nS4SdwJ1er2mlfX5bRg0bZF3Vsl/yfroESuxIM7AKG4d0NKRDLOm8OX0oPljfmJR8\no0UwQzAOBgNVHQ8BAf8EBAMCAQYwEgYDVR0TAQH/BAgwBgEB/wIBATAdBgNVHQ4E\nFgQUl1ia02hcK0nFVLKIS+2xI1kv0ygwCgYIKoZIzj0EAwIDRwAwRAIgSHgjqxI/\nUtH5jj7WCLZD+PgwYgFuq1S30Xog9ShrdcICIAqbb8zeQdwCaQwuGVONgim0xFJY\nMZph/xHGmMdjrI9B\n-----END CERTIFICATE-----\n"
            },
            "grpcOptions": {
                "ssl-target-name-override": "peer0.dealer.auto.com",
                "hostnameOverride": "peer0.dealer.auto.com"
            }
        }
    },
    "certificateAuthorities": {
        "ca.dealer.auto.com": {
            "url": "https://localhost:8054",
            "caName": "ca-dealer",
            "tlsCACerts": {
                "pem": ["-----BEGIN CERTIFICATE-----\nMIIB6DCCAY+gAwIBAgIUaYc8VzXDUier4xd62vgds3fIlQ8wCgYIKoZIzj0EAwIw\nUTEOMAwGA1UEBhMFSW5kaWExDzANBgNVBAcTBktlcmFsYTERMA8GA1UEChMIYXV0\nby5jb20xGzAZBgNVBAMTEmNhLmRlYWxlci5hdXRvLmNvbTAeFw0yMTExMTAxMjI2\nMDBaFw0zNjExMDYxMjI2MDBaMFExDjAMBgNVBAYTBUluZGlhMQ8wDQYDVQQHEwZL\nZXJhbGExETAPBgNVBAoTCGF1dG8uY29tMRswGQYDVQQDExJjYS5kZWFsZXIuYXV0\nby5jb20wWTATBgcqhkjOPQIBBggqhkjOPQMBBwNCAARO0MW53pYKZTunwScWeyBc\nS4SdwJ1er2mlfX5bRg0bZF3Vsl/yfroESuxIM7AKG4d0NKRDLOm8OX0oPljfmJR8\no0UwQzAOBgNVHQ8BAf8EBAMCAQYwEgYDVR0TAQH/BAgwBgEB/wIBATAdBgNVHQ4E\nFgQUl1ia02hcK0nFVLKIS+2xI1kv0ygwCgYIKoZIzj0EAwIDRwAwRAIgSHgjqxI/\nUtH5jj7WCLZD+PgwYgFuq1S30Xog9ShrdcICIAqbb8zeQdwCaQwuGVONgim0xFJY\nMZph/xHGmMdjrI9B\n-----END CERTIFICATE-----\n"]
            },
            "httpOptions": {
                "verify": false
            }
        }
    }
}
