{
    "name": "test-network-insurance",
    "version": "1.0.0",
    "client": {
        "organization": "Mvd",
        "connection": {
            "timeout": {
                "peer": {
                    "endorser": "300"
                }
            }
        }
    },
    "organizations": {
        "insurance": {
            "mspid": "MvdMSP",
            "peers": [
                "peer0.insurance.auto.com"
            ],
            "certificateAuthorities": [
                "ca.insurance.auto.com"
            ]
        }
    },
    "peers": {
        "peer0.insurance.auto.com": {
            "url": "grpcs://localhost:11051",
            "tlsCACerts": {
                "pem": "-----BEGIN CERTIFICATE-----\nMIICFjCCAb2gAwIBAgIUYcBWlg0kOJXAi/iY5kAOaTsCYL0wCgYIKoZIzj0EAwIw\naDELMAkGA1UEBhMCVVMxFzAVBgNVBAgTDk5vcnRoIENhcm9saW5hMRQwEgYDVQQK\nEwtIeXBlcmxlZGdlcjEPMA0GA1UECxMGRmFicmljMRkwFwYDVQQDExBmYWJyaWMt\nY2Etc2VydmVyMB4XDTIxMTExMDE3MjMwMFoXDTM2MTEwNjE3MjMwMFowaDELMAkG\nA1UEBhMCVVMxFzAVBgNVBAgTDk5vcnRoIENhcm9saW5hMRQwEgYDVQQKEwtIeXBl\ncmxlZGdlcjEPMA0GA1UECxMGRmFicmljMRkwFwYDVQQDExBmYWJyaWMtY2Etc2Vy\ndmVyMFkwEwYHKoZIzj0CAQYIKoZIzj0DAQcDQgAEdXe4sW/6op1d4klX0RO4Cx+S\np700Bmb7htlnfElQpsx5MljuozA30Bjdh49kfXGfmKDKLBVdBuyyvVzwjKQwZ6NF\nMEMwDgYDVR0PAQH/BAQDAgEGMBIGA1UdEwEB/wQIMAYBAf8CAQEwHQYDVR0OBBYE\nFBiawk9zIJooROHOpNa1f1pU9CGnMAoGCCqGSM49BAMCA0cAMEQCIFAcv3wirme+\nXPtYTHEXpGXkv8stTJwamOTiZ6kr8XquAiButH539f8GCKgjoGHxsl60hu4820/Z\nQKVanJ+b1QQ0Yw==\n-----END CERTIFICATE-----\n"
            },
            "grpcOptions": {
                "ssl-target-name-override": "peer0.insurance.auto.com",
                "hostnameOverride": "peer0.insurance.auto.com"
            }
        }
    },
    "certificateAuthorities": {
        "ca.insurance.auto.com": {
            "url": "https://localhost:9054",
            "caName": "ca-insurance",
            "tlsCACerts": {
                "pem": ["-----BEGIN CERTIFICATE-----\nMIICFjCCAb2gAwIBAgIUYcBWlg0kOJXAi/iY5kAOaTsCYL0wCgYIKoZIzj0EAwIw\naDELMAkGA1UEBhMCVVMxFzAVBgNVBAgTDk5vcnRoIENhcm9saW5hMRQwEgYDVQQK\nEwtIeXBlcmxlZGdlcjEPMA0GA1UECxMGRmFicmljMRkwFwYDVQQDExBmYWJyaWMt\nY2Etc2VydmVyMB4XDTIxMTExMDE3MjMwMFoXDTM2MTEwNjE3MjMwMFowaDELMAkG\nA1UEBhMCVVMxFzAVBgNVBAgTDk5vcnRoIENhcm9saW5hMRQwEgYDVQQKEwtIeXBl\ncmxlZGdlcjEPMA0GA1UECxMGRmFicmljMRkwFwYDVQQDExBmYWJyaWMtY2Etc2Vy\ndmVyMFkwEwYHKoZIzj0CAQYIKoZIzj0DAQcDQgAEdXe4sW/6op1d4klX0RO4Cx+S\np700Bmb7htlnfElQpsx5MljuozA30Bjdh49kfXGfmKDKLBVdBuyyvVzwjKQwZ6NF\nMEMwDgYDVR0PAQH/BAQDAgEGMBIGA1UdEwEB/wQIMAYBAf8CAQEwHQYDVR0OBBYE\nFBiawk9zIJooROHOpNa1f1pU9CGnMAoGCCqGSM49BAMCA0cAMEQCIFAcv3wirme+\nXPtYTHEXpGXkv8stTJwamOTiZ6kr8XquAiButH539f8GCKgjoGHxsl60hu4820/Z\nQKVanJ+b1QQ0Yw==\n-----END CERTIFICATE-----\n"]
            },
            "httpOptions": {
                "verify": false
            }
        }
    }
}
