{
    "name": "test-network-hospital",
    "version": "1.0.0",
    "client": {
        "organization": "Manufacturer",
        "connection": {
            "timeout": {
                "peer": {
                    "endorser": "300"
                }
            }
        }
    },
    "organizations": {
        "hospital": {
            "mspid": "ManufacturerMSP",
            "peers": [
                "peer0.hospital.auto.com"
            ],
            "certificateAuthorities": [
                "ca.hospital.auto.com"
            ]
        }
    },
    "peers": {
        "peer0.hospital.auto.com": {
            "url": "grpcs://localhost:7051",
            "tlsCACerts": {
                "pem": "-----BEGIN CERTIFICATE-----\nMIICFzCCAb2gAwIBAgIUeHM7lrSk0esyWYfj5P7nZR/H4OgwCgYIKoZIzj0EAwIw\naDELMAkGA1UEBhMCVVMxFzAVBgNVBAgTDk5vcnRoIENhcm9saW5hMRQwEgYDVQQK\nEwtIeXBlcmxlZGdlcjEPMA0GA1UECxMGRmFicmljMRkwFwYDVQQDExBmYWJyaWMt\nY2Etc2VydmVyMB4XDTIxMTExMDE3MjMwMFoXDTM2MTEwNjE3MjMwMFowaDELMAkG\nA1UEBhMCVVMxFzAVBgNVBAgTDk5vcnRoIENhcm9saW5hMRQwEgYDVQQKEwtIeXBl\ncmxlZGdlcjEPMA0GA1UECxMGRmFicmljMRkwFwYDVQQDExBmYWJyaWMtY2Etc2Vy\ndmVyMFkwEwYHKoZIzj0CAQYIKoZIzj0DAQcDQgAEKzrKBYWgDw/EWFbLfTbvZ5lV\n5FNDs0nZYDVBJ4gLcYyLZRLYn0Vbx1mAj78y02zqXF+lCT8G0kOlvqPDy5sjsaNF\nMEMwDgYDVR0PAQH/BAQDAgEGMBIGA1UdEwEB/wQIMAYBAf8CAQEwHQYDVR0OBBYE\nFMmkUNxiQxTaRMzDP2j1TNzHGl/AMAoGCCqGSM49BAMCA0gAMEUCIQC1oFRyK0aq\nqAV3pBM3oJ/fUtC+j2UAl7ECq0rRfnQSOAIgXJsjax0bTEhRo0kSSis/x6+jrR2G\nfXB1w76ogkQHB1A=\n-----END CERTIFICATE-----\n"
            },
            "grpcOptions": {
                "ssl-target-name-override": "peer0.hospital.auto.com",
                "hostnameOverride": "peer0.hospital.auto.com"
            }
        }
    },
    "certificateAuthorities": {
        "ca.hospital.auto.com": {
            "url": "https://localhost:7054",
            "caName": "ca-hospital",
            "tlsCACerts": {
                "pem": ["-----BEGIN CERTIFICATE-----\nMIICFzCCAb2gAwIBAgIUeHM7lrSk0esyWYfj5P7nZR/H4OgwCgYIKoZIzj0EAwIw\naDELMAkGA1UEBhMCVVMxFzAVBgNVBAgTDk5vcnRoIENhcm9saW5hMRQwEgYDVQQK\nEwtIeXBlcmxlZGdlcjEPMA0GA1UECxMGRmFicmljMRkwFwYDVQQDExBmYWJyaWMt\nY2Etc2VydmVyMB4XDTIxMTExMDE3MjMwMFoXDTM2MTEwNjE3MjMwMFowaDELMAkG\nA1UEBhMCVVMxFzAVBgNVBAgTDk5vcnRoIENhcm9saW5hMRQwEgYDVQQKEwtIeXBl\ncmxlZGdlcjEPMA0GA1UECxMGRmFicmljMRkwFwYDVQQDExBmYWJyaWMtY2Etc2Vy\ndmVyMFkwEwYHKoZIzj0CAQYIKoZIzj0DAQcDQgAEKzrKBYWgDw/EWFbLfTbvZ5lV\n5FNDs0nZYDVBJ4gLcYyLZRLYn0Vbx1mAj78y02zqXF+lCT8G0kOlvqPDy5sjsaNF\nMEMwDgYDVR0PAQH/BAQDAgEGMBIGA1UdEwEB/wQIMAYBAf8CAQEwHQYDVR0OBBYE\nFMmkUNxiQxTaRMzDP2j1TNzHGl/AMAoGCCqGSM49BAMCA0gAMEUCIQC1oFRyK0aq\nqAV3pBM3oJ/fUtC+j2UAl7ECq0rRfnQSOAIgXJsjax0bTEhRo0kSSis/x6+jrR2G\nfXB1w76ogkQHB1A=\n-----END CERTIFICATE-----\n"]
            },
            "httpOptions": {
                "verify": false
            }
        }
    }
}
